<?xml version="1.0" encoding="utf-8"?>
<!-- Generator: Adobe Illustrator 24.2.2, SVG Export Plug-In . SVG Version: 6.00 Build 0)  -->
<svg version="1.1" id="Ebene_1" xmlns="http://www.w3.org/2000/svg" xmlns:xlink="http://www.w3.org/1999/xlink" x="0px" y="0px"
	 viewBox="0 0 287.5 120.4" style="enable-background:new 0 0 287.5 120.4;" xml:space="preserve">
<style type="text/css">
	.st0{fill:#0095D6;}
	.st1{fill:#1D1D1B;}
</style>
<g>
	<polygon class="st0" points="21.2,0 287.5,0 271.4,91.3 235.1,120.4 0,120.4 	"/>
	<g>
		<path class="st1" d="M27.6,102.2c-0.1,0.3-0.1,0.5-0.1,0.8c0,0.9,0.7,1.2,2.5,1.2c2.9,0,3.3-0.2,3.6-1.8c0.1-0.4,0.1-0.7,0.1-1
			c0-0.6-0.4-0.9-2.1-1l-4-0.4c-2.2-0.2-3.7-1.2-3.7-3.7c0-0.6,0.1-1.2,0.2-1.9c0.8-4.6,2.9-6,7.6-6h1.8c5,0,6.5,1.2,6.5,3.6
			c0,0.6-0.1,1.2-0.3,2.4h-4.9c0.1-0.5,0.1-0.7,0.1-0.8c0-0.5-0.3-1-1.5-1h-1.7c-1.5,0-2,0.4-2.2,1.9c-0.1,0.3-0.1,0.5-0.1,0.7
			c0,0.6,0.4,0.9,1.9,1l3.1,0.3c3.7,0.3,4.8,1.3,4.8,3.8c0,0.6-0.1,1.2-0.2,2c-0.9,5-3.2,6.1-9.5,6.1c-4.5,0-7.2-0.7-7.2-3.7
			c0-0.5,0.1-1,0.3-2.6H27.6z"/>
		<path class="st1" d="M44.3,88.8h8.3c4.2,0,7.1,0.9,7.1,4.2c0,0.6,0,1.4-0.2,2.6c-1,6.1-3,7.5-8.6,7.5h-1.6c-0.4,0-0.8,0-2,0
			l-0.9,5.2h-5.4L44.3,88.8z M48,98.6h3.5c2,0,2.2-0.2,2.7-3c0.1-0.4,0.1-0.8,0.1-1c0-1-0.5-1.3-1.9-1.3h-3.4L48,98.6z"/>
		<path class="st1" d="M63.9,88.8h14.8l-0.8,4.3h-9.4l-0.6,3.4h8.9l-0.7,3.7h-8.9l-0.6,3.7H76l-0.8,4.4H60.5L63.9,88.8z"/>
		<path class="st1" d="M81.3,88.8h14.8l-0.8,4.3h-9.4l-0.6,3.4h8.9l-0.7,3.7h-8.9l-0.6,3.7h9.4l-0.8,4.4H77.9L81.3,88.8z"/>
		<path class="st1" d="M98.7,88.8h8.5c5.9,0,7.8,1.8,7.8,4.9c0,1-0.2,2.7-0.6,4.9c-1.3,7.6-3.4,9.8-10.9,9.8h-2.8
			c-1.5,0-3.4-0.1-5.4-0.1L98.7,88.8z M101.5,103.7h3.4c3,0,3.3-0.4,4.3-6.4c0.2-0.9,0.3-1.7,0.3-2.2c0-1.4-0.5-1.8-3-1.8h-1.6
			c-0.3,0-0.6,0-1.6,0.1L101.5,103.7z"/>
		<path class="st1" d="M135.7,97.5l-0.7,3.9c-0.8,4.6-2.6,7-7.9,7h-3.7c-3.6,0-6.1-1.3-6.1-5.3c0-1.1,0.3-3.3,0.6-5
			c1.4-7.8,3.9-9.6,9.8-9.6h1.9c4.5,0,6.6,1,6.6,3.9c0,0.6-0.1,1.3-0.2,2.2h-5.2c0-0.2,0.1-0.4,0.1-0.5c0-0.9-0.5-1.3-3.3-1.3
			c-3,0-3.5,0.6-4.3,5.1c-0.3,2-0.5,3.3-0.5,4.2c0,1.3,0.5,1.8,2.4,1.8h1.1c2.9,0,3.1-0.4,3.6-2.9h-3l0.6-3.6H135.7z"/>
		<path class="st1" d="M140.5,88.8h8.1c5.1,0,6.8,1.2,6.8,4.1c0,0.6-0.1,1.5-0.2,2.4c-0.5,2.8-1.6,4.7-4.7,5
			c2.3,0.4,3.1,1.3,3.1,2.8c0,0.5-0.1,1.1-0.2,1.8l-0.6,3.4h-5.3l0.7-3.9c0-0.2,0.1-0.4,0.1-0.6c0-0.6-0.2-1.1-2-1.1h-2.9l-1,5.6
			h-5.3L140.5,88.8z M144.1,98.3c0.9,0.1,1.2,0.1,1.6,0.1h0.6c2.7,0,3-0.5,3.4-2.6c0.1-0.5,0.2-1,0.2-1.3c0-1.1-0.6-1.3-2.2-1.3
			c-0.9,0-1.7,0-2.7,0.1L144.1,98.3z"/>
		<path class="st1" d="M164.8,88.8l-3.4,19.5H156l3.4-19.5H164.8z"/>
		<path class="st1" d="M168,88.8h8.3c4.2,0,7.1,0.9,7.1,4.2c0,0.6,0,1.4-0.2,2.6c-1,6.1-3,7.5-8.6,7.5h-1.6c-0.4,0-0.8,0-2,0
			l-0.9,5.2h-5.4L168,88.8z M171.6,98.6h3.5c2,0,2.2-0.2,2.7-3c0.1-0.4,0.1-0.8,0.1-1c0-1-0.5-1.3-1.9-1.3h-3.4L171.6,98.6z"/>
	</g>
	<g>
		<path class="st1" d="M98.5,36.7l5.1,0c6.1,0,10,0.9,12.4,2.3c0.4,0.2,0.7,0.5,1,0.7h19.6c-0.9-2.9-3-5.3-6.4-7.2
			c-4.8-2.8-12.5-4.7-24.8-4.8l-20.4,0l-5.5,12h17.6L98.5,36.7z"/>
		<path class="st1" d="M157.3,36.7l5.1,0c6.1,0,10,0.9,12.4,2.3c0.4,0.2,0.7,0.5,1,0.7h19.6c-0.9-2.9-3-5.3-6.4-7.2
			c-4.8-2.8-12.5-4.7-24.8-4.8l-20.4,0l-5.5,12h17.6L157.3,36.7z"/>
		<path class="st1" d="M195.4,46.9h-18.1c-0.9,1.8-2.5,3.5-4.7,4.8c-4.1,2.4-10.7,3.7-18,3.7l-5.8,0l3.9-8.5h-34.1
			c-0.8,1.8-2.5,3.5-4.7,4.8c-4.1,2.4-10.7,3.7-18,3.7l-5.8,0l3.9-8.5H76.3l-8,17.5l25.5,0c14.6,0,25.5-2.3,33.1-6.7
			c1.8-1,3.4-2.2,4.7-3.4l-4.6,10l25.5,0c14.6,0,25.6-2.3,33.1-6.7C190.8,54.7,194.1,51,195.4,46.9z"/>
		<polygon class="st1" points="282.8,27.7 261.7,27.7 250.7,34.6 245.7,27.7 224.5,27.7 224.5,27.7 209.8,27.7 203.5,39.7 
			219.3,39.7 225.3,28.7 236.3,43.7 212.7,58.7 209.2,58.7 215.4,46.9 199.5,46.9 190.4,64.4 203.9,64.4 206.2,64.4 223.6,64.4 
			242.6,52.3 251.6,64.4 272.7,64.4 257.3,43.4 		"/>
		<polygon class="st1" points="53.8,39.7 71.4,39.7 77,27.7 60.3,27.7 54.8,27.7 11.6,54.8 9.9,64.3 20.1,64.3 36,54 47.5,54 
			42.5,64.3 60.1,64.3 68.1,46.9 43.1,46.9 		"/>
	</g>
</g>
</svg>
