<?xml version="1.0" encoding="utf-8"?>
<!-- Generator: Adobe Illustrator 24.2.2, SVG Export Plug-In . SVG Version: 6.00 Build 0)  -->
<svg version="1.1" id="Ebene_1" xmlns="http://www.w3.org/2000/svg" xmlns:xlink="http://www.w3.org/1999/xlink" x="0px" y="0px"
	 viewBox="0 0 287.5 120.4" style="enable-background:new 0 0 287.5 120.4;" xml:space="preserve">
<style type="text/css">
	.st0{fill:#EA560D;}
	.st1{fill:#1D1D1B;}
</style>
<g>
	<polygon class="st0" points="21.2,0 287.5,0 271.4,91.3 235.1,120.4 0,120.4 	"/>
	<path class="st1" d="M98.5,36.7l5.1,0c6.1,0,10,0.9,12.4,2.3c0.4,0.2,0.7,0.5,1,0.7h19.6c-0.9-2.9-3-5.3-6.4-7.2
		c-4.8-2.8-12.5-4.7-24.8-4.8l-20.4,0l-5.5,12h17.6L98.5,36.7z"/>
	<path class="st1" d="M157.3,36.7l5.1,0c6.1,0,10,0.9,12.4,2.3c0.4,0.2,0.7,0.5,1,0.7h19.6c-0.9-2.9-3-5.3-6.4-7.2
		c-4.8-2.8-12.5-4.7-24.8-4.8l-20.4,0l-5.5,12h17.6L157.3,36.7z"/>
	<path class="st1" d="M195.4,46.9h-18.1c-0.9,1.8-2.5,3.5-4.7,4.8c-4.1,2.4-10.7,3.7-18,3.7l-5.8,0l3.9-8.5h-34.1
		c-0.8,1.8-2.5,3.5-4.7,4.8c-4.1,2.4-10.7,3.7-18,3.7l-5.8,0l3.9-8.5H76.3l-8,17.5l25.5,0c14.6,0,25.5-2.3,33.1-6.7
		c1.8-1,3.4-2.2,4.7-3.4l-4.6,10l25.5,0c14.6,0,25.6-2.3,33.1-6.7C190.8,54.7,194.1,51,195.4,46.9z"/>
	<polygon class="st1" points="282.8,27.7 261.7,27.7 250.7,34.6 245.7,27.7 224.5,27.7 224.5,27.7 209.8,27.7 203.5,39.7 
		219.3,39.7 225.3,28.7 236.3,43.7 212.7,58.7 209.2,58.7 215.4,46.9 199.5,46.9 190.4,64.4 203.9,64.4 206.2,64.4 223.6,64.4 
		242.6,52.3 251.6,64.4 272.7,64.4 257.3,43.4 	"/>
	<polygon class="st1" points="53.8,39.7 71.4,39.7 77,27.7 60.3,27.7 54.8,27.7 11.6,54.8 9.9,64.3 20.1,64.3 36.1,54 47.5,54 
		42.5,64.3 60.1,64.3 68.1,46.9 43.1,46.9 	"/>
	<g>
		<path class="st1" d="M27.6,102.2c-0.1,0.3-0.1,0.5-0.1,0.8c0,0.9,0.7,1.2,2.5,1.2c2.9,0,3.3-0.2,3.6-1.8c0.1-0.4,0.1-0.7,0.1-1
			c0-0.6-0.4-0.9-2.1-1l-4-0.4c-2.2-0.2-3.7-1.2-3.7-3.7c0-0.6,0.1-1.2,0.2-1.9c0.8-4.6,2.9-6,7.6-6h1.8c5,0,6.5,1.2,6.5,3.6
			c0,0.6-0.1,1.2-0.3,2.4h-4.9c0.1-0.5,0.1-0.7,0.1-0.8c0-0.5-0.3-1-1.5-1h-1.7c-1.5,0-2,0.4-2.2,1.9c-0.1,0.3-0.1,0.5-0.1,0.7
			c0,0.6,0.4,0.9,1.9,1l3.1,0.3c3.7,0.3,4.8,1.3,4.8,3.8c0,0.6-0.1,1.2-0.2,2c-0.9,5-3.2,6.1-9.5,6.1c-4.5,0-7.2-0.7-7.2-3.7
			c0-0.5,0.1-1,0.3-2.6H27.6z"/>
		<path class="st1" d="M43,96.8c1.2-6.7,3.9-8.3,9.9-8.3c5.6,0,8,1.4,8,5.1c0,0.8-0.2,2.4-1.1,7c-0.9,4.8-2.7,7.8-10,7.8
			c-5.4,0-7.9-1.5-7.9-5c0-0.7,0.1-1.4,0.2-2.3L43,96.8z M48.2,98.4c-0.3,1.9-0.5,3-0.5,3.7c0,1.3,0.5,1.8,2.7,1.8
			c3.5,0,3.6-0.1,4.7-6c0.3-1.5,0.4-2.4,0.4-3c0-1.3-0.5-1.7-3.3-1.7C49.5,93.1,49,93.5,48.2,98.4z"/>
		<path class="st1" d="M66.4,88.8h13.2l-0.8,4.4H71l-0.6,3.6h7.3l-0.8,4.3h-7.4l-1.2,7.1H63L66.4,88.8z"/>
		<path class="st1" d="M83.9,108.2l2.6-14.9h-4.9l0.8-4.6h15.2l-0.8,4.6h-4.9l-2.6,14.9H83.9z"/>
	</g>
</g>
</svg>
